{
  "accessors": [
    {
      "bufferView": 2,
      "componentType": 5126,
      "count": 65532,
      "max": [
        7.9608850479125977,
        9.1673049926757812,
        7.9074468612670898
      ],
      "min": [
        -7.9608850479125977,
        -2.3500750064849854,
        -7.8840889930725098
      ],
      "type": "VEC3"
    },
    {
      "bufferView": 2,
      "byteOffset": 786384,
      "componentType": 5126,
      "count": 65532,
      "max": [
        0.99999624490737915,
        0.99990445375442505,
        0.99999547004699707
      ],
      "min": [
        -0.99999988079071045,
        -0.99998676776885986,
        -0.99999809265136719
      ],
      "type": "VEC3"
    },
    {
      "bufferView": 3,
      "componentType": 5126,
      "count": 65532,
      "max": [
        0.99995207786560059,
        0.99999189376831055,
        0.99994546175003052,
        1
      ],
      "min": [
        -0.99947619438171387,
        -0.99996000528335571,
        -0.94094711542129517,
        -1
      ],
      "type": "VEC4"
    },
    {
      "bufferView": 1,
      "componentType": 5126,
      "count": 65532,
      "max": [
        0.99276900291442871,
        0.94672799110412598
      ],
      "min": [
        0.025487000122666359,
        0.00036599999293684959
      ],
      "type": "VEC2"
    },
    {
      "bufferView": 0,
      "componentType": 5125,
      "count": 354444,
      "max": [
        65531
      ],
      "min": [
        0
      ],
      "type": "SCALAR"
    },
    {
      "bufferView": 2,
      "byteOffset": 1572768,
      "componentType": 5126,
      "count": 65532,
      "max": [
        7.9221010208129883,
        10.528305053710938,
        7.9020609855651855
      ],
      "min": [
        -7.9304351806640625,
        -8.30328369140625,
        -7.8798398971557617
      ],
      "type": "VEC3"
    },
    {
      "bufferView": 2,
      "byteOffset": 2359152,
      "componentType": 5126,
      "count": 65532,
      "max": [
        0.99999535083770752,
        1,
        0.99999910593032837
      ],
      "min": [
        -0.99999988079071045,
        -0.99990564584732056,
        -0.99999433755874634
      ],
      "type": "VEC3"
    },
    {
      "bufferView": 3,
      "byteOffset": 1048512,
      "componentType": 5126,
      "count": 65532,
      "max": [
        0.99994868040084839,
        0.99989670515060425,
        0.99949121475219727,
        1
      ],
      "min": [
        -0.99985462427139282,
        -0.99996000528335571,
        -0.99996870756149292,
        1
      ],
      "type": "VEC4"
    },
    {
      "bufferView": 1,
      "byteOffset": 524256,
      "componentType": 5126,
      "count": 65532,
      "max": [
        0.9996340274810791,
        0.97925597429275513
      ],
      "min": [
        0.00036599999293684959,
        0.00036599999293684959
      ],
      "type": "VEC2"
    },
    {
      "bufferView": 0,
      "byteOffset": 1417776,
      "componentType": 5125,
      "count": 327906,
      "max": [
        65531
      ],
      "min": [
        0
      ],
      "type": "SCALAR"
    },
    {
      "bufferView": 2,
      "byteOffset": 3145536,
      "componentType": 5126,
      "count": 65532,
      "max": [
        7.7998499870300293,
        10.497047424316406,
        7.8507571220397949
      ],
      "min": [
        -7.815824031829834,
        -10.528303146362305,
        -7.9074468612670898
      ],
      "type": "VEC3"
    },
    {
      "bufferView": 2,
      "byteOffset": 3931920,
      "componentType": 5126,
      "count": 65532,
      "max": [
        0.99999535083770752,
        0.99999946355819702,
        0.99999064207077026
      ],
      "min": [
        -0.9999995231628418,
        -0.99999964237213135,
        -0.99999922513961792
      ],
      "type": "VEC3"
    },
    {
      "bufferView": 3,
      "byteOffset": 2097024,
      "componentType": 5126,
      "count": 65532,
      "max": [
        0.99999338388442993,
        0.99999958276748657,
        0.99994158744812012,
        1
      ],
      "min": [
        -0.99985462427139282,
        -0.9999549388885498,
        -0.9998975396156311,
        -1
      ],
      "type": "VEC4"
    },
    {
      "bufferView": 1,
      "byteOffset": 1048512,
      "componentType": 5126,
      "count": 65532,
      "max": [
        0.99806398153305054,
        0.9996340274810791
      ],
      "min": [
        0.00036599999293684959,
        0.0018279999494552612
      ],
      "type": "VEC2"
    },
    {
      "bufferView": 0,
      "byteOffset": 2729400,
      "componentType": 5125,
      "count": 336531,
      "max": [
        65531
      ],
      "min": [
        0
      ],
      "type": "SCALAR"
    },
    {
      "bufferView": 2,
      "byteOffset": 4718304,
      "componentType": 5126,
      "count": 14731,
      "max": [
        5.7464179992675781,
        -1.6931149959564209,
        5.6738181114196777
      ],
      "min": [
        -6.1559939384460449,
        -10.526433944702148,
        -5.7498621940612793
      ],
      "type": "VEC3"
    },
    {
      "bufferView": 2,
      "byteOffset": 4895076,
      "componentType": 5126,
      "count": 14731,
      "max": [
        0.99993300437927246,
        0.84182989597320557,
        0.99993222951889038
      ],
      "min": [
        -0.99987149238586426,
        -0.99999934434890747,
        -0.99992287158966064
      ],
      "type": "VEC3"
    },
    {
      "bufferView": 3,
      "byteOffset": 3145536,
      "componentType": 5126,
      "count": 14731,
      "max": [
        0.99991530179977417,
        0.99997800588607788,
        0.99938791990280151,
        1
      ],
      "min": [
        -0.97361600399017334,
        -0.9616847038269043,
        -0.99452310800552368,
        -1
      ],
      "type": "VEC4"
    },
    {
      "bufferView": 1,
      "byteOffset": 1572768,
      "componentType": 5126,
      "count": 14731,
      "max": [
        0.95541501045227051,
        0.98067998886108398
      ],
      "min": [
        0.00036599999293684959,
        0.00036599999293684959
      ],
      "type": "VEC2"
    },
    {
      "bufferView": 0,
      "byteOffset": 4075524,
      "componentType": 5125,
      "count": 72933,
      "max": [
        14730
      ],
      "min": [
        0
      ],
      "type": "SCALAR"
    }
  ],
  "asset": {
    "extras": {
      "author": "Spogna (https://sketchfab.com/spogna)",
      "license": "CC-BY-NC-4.0 (http://creativecommons.org/licenses/by-nc/4.0/)",
      "source": "https://sketchfab.com/3d-models/canon-ef-24-70mm-f28l-ii-usm-rawscan-b7a79b2967514a4bb61cd3b4aa989948",
      "title": "Canon EF 24-70mm f/2.8L II USM -RAWscan"
    },
    "generator": "Sketchfab-6.4.0",
    "version": "2.0"
  },
  "bufferViews": [
    {
      "buffer": 0,
      "byteLength": 4367256,
      "byteOffset": 0,
      "name": "floatBufferViews",
      "target": 34963
    },
    {
      "buffer": 0,
      "byteLength": 1690616,
      "byteOffset": 4367256,
      "byteStride": 8,
      "name": "floatBufferViews",
      "target": 34962
    },
    {
      "buffer": 0,
      "byteLength": 5071848,
      "byteOffset": 6057872,
      "byteStride": 12,
      "name": "floatBufferViews",
      "target": 34962
    },
    {
      "buffer": 0,
      "byteLength": 3381232,
      "byteOffset": 11129720,
      "byteStride": 16,
      "name": "floatBufferViews",
      "target": 34962
    }
  ],
  "buffers": [
    {
      "byteLength": 14510952,
      "uri": "scene.bin"
    }
  ],
  "extensionsRequired": [
    "KHR_materials_pbrSpecularGlossiness"
  ],
  "extensionsUsed": [
    "KHR_materials_pbrSpecularGlossiness"
  ],
  "images": [
    {
      "uri": "textures/material_0_diffuse.jpeg"
    },
    {
      "uri": "textures/material_0_specularGlossiness.png"
    },
    {
      "uri": "textures/material_0_normal.jpeg"
    },
    {
      "uri": "textures/material_0_occlusion.png"
    }
  ],
  "materials": [
    {
      "doubleSided": false,
      "extensions": {
        "KHR_materials_pbrSpecularGlossiness": {
          "diffuseFactor": [
            1,
            1,
            1,
            1
          ],
          "diffuseTexture": {
            "index": 0,
            "texCoord": 0
          },
          "glossinessFactor": 1,
          "specularFactor": [
            1,
            1,
            1
          ],
          "specularGlossinessTexture": {
            "index": 1,
            "texCoord": 0
          }
        }
      },
      "name": "material_0",
      "normalTexture": {
        "index": 2,
        "scale": 1,
        "texCoord": 0
      },
      "occlusionTexture": {
        "index": 3,
        "strength": 1,
        "texCoord": 0
      }
    }
  ],
  "meshes": [
    {
      "primitives": [
        {
          "attributes": {
            "NORMAL": 1,
            "POSITION": 0,
            "TANGENT": 2,
            "TEXCOORD_0": 3
          },
          "indices": 4,
          "material": 0,
          "mode": 4
        }
      ]
    },
    {
      "primitives": [
        {
          "attributes": {
            "NORMAL": 6,
            "POSITION": 5,
            "TANGENT": 7,
            "TEXCOORD_0": 8
          },
          "indices": 9,
          "material": 0,
          "mode": 4
        }
      ]
    },
    {
      "primitives": [
        {
          "attributes": {
            "NORMAL": 11,
            "POSITION": 10,
            "TANGENT": 12,
            "TEXCOORD_0": 13
          },
          "indices": 14,
          "material": 0,
          "mode": 4
        }
      ]
    },
    {
      "primitives": [
        {
          "attributes": {
            "NORMAL": 16,
            "POSITION": 15,
            "TANGENT": 17,
            "TEXCOORD_0": 18
          },
          "indices": 19,
          "material": 0,
          "mode": 4
        }
      ]
    }
  ],
  "nodes": [
    {
      "children": [
        1
      ],
      "name": "RootNode (gltf orientation matrix)",
      "rotation": [
        -0.70710678118654746,
        -0,
        -0,
        0.70710678118654757
      ]
    },
    {
      "children": [
        2
      ],
      "matrix": [
        1,
        0,
        0,
        0,
        0,
        2.2204460492503131e-16,
        -1,
        0,
        0,
        1,
        2.2204460492503131e-16,
        0,
        0,
        1.9073486328125e-06,
        -3.814697265625e-06,
        1
      ],
      "name": "RootNode (model correction matrix)"
    },
    {
      "children": [
        3,
        4,
        5,
        6
      ],
      "name": "24-70mm.obj.cleaner.materialmerger.gles"
    },
    {
      "mesh": 0,
      "name": ""
    },
    {
      "mesh": 1,
      "name": ""
    },
    {
      "mesh": 2,
      "name": ""
    },
    {
      "mesh": 3,
      "name": ""
    }
  ],
  "samplers": [
    {
      "magFilter": 9729,
      "minFilter": 9987,
      "wrapS": 10497,
      "wrapT": 10497
    }
  ],
  "scene": 0,
  "scenes": [
    {
      "name": "OSG_Scene",
      "nodes": [
        0
      ]
    }
  ],
  "textures": [
    {
      "sampler": 0,
      "source": 0
    },
    {
      "sampler": 0,
      "source": 1
    },
    {
      "sampler": 0,
      "source": 2
    },
    {
      "sampler": 0,
      "source": 3
    }
  ]
}

